Project 2: Data Mining, Classification, Prediction
…
Sarah Lucas sml3855

Introduction

The dataset used for this project contains pulse rate data collected from a sample of 232 students before and after exercise sourced from the Stat2Data package. The numeric variables include Active, the Pulse rate (beats per minute) after exercise; Rest, the Resting pulse rate (beats per minute) prior to exercise; Exercise, the typical hours of weekly exercise; Hgt, the participant height; and Wgt, the participant weight. Binary variables Sex and Smoke correspond to participant sex (1 = female, 0 = male) and smoking status (1 = smoker, 0 = nonsmoker).

I was interested in this data to see if the difference in active and resting pulse rates is linked to exercise status. Athletes tend to have lower resting pulse rates, so I wonder if this will manifest in a strong difference between active and resting heart rates in the data collected. I also wondered if this effect would be affected by the participants weight.

library(tidyverse)
library(fivethirtyeight)

pulse <- read_csv("Pulse.csv")
pulse

## # A tibble: 232 x 8
##       X1 Active  Rest Smoke   Sex Exercise   Hgt   Wgt
##    <dbl>  <dbl> <dbl> <dbl> <dbl>    <dbl> <dbl> <dbl>
##  1     1     97    78     0     1        1    63   119
##  2     2     82    68     1     0        3    70   225
##  3     3     88    62     0     0        3    72   175
##  4     4    106    74     0     0        3    72   170
##  5     5     78    63     0     1        3    67   125
##  6     6    109    65     0     0        3    74   188
##  7     7     66    43     0     1        3    67   140
##  8     8     68    65     0     0        3    70   200
##  9     9    100    63     0     0        1    70   165
## 10    10     70    59     0     1        2    65   115
## #  with 222 more rows
…
